{
  "project_info": {
    "project_number": "255891483010",
    "firebase_url": "https://deviant-ee1f9.firebaseio.com",
    "project_id": "deviant-ee1f9",
    "storage_bucket": "deviant-ee1f9.appspot.com"
  },
  "client": [
    {
      "client_info": {
        "mobilesdk_app_id": "1:255891483010:android:17e249da902199f219879b",
        "android_client_info": {
          "package_name": "com.playdeviant.vgc"
        }
      },
      "oauth_client": [
        {
          "client_id": "255891483010-9sviphl2bir4j9npmbodvf6dg6dkkqnr.apps.googleusercontent.com",
          "client_type": 1,
          "android_info": {
            "package_name": "com.playdeviant.vgc",
            "certificate_hash": "c1d48a7d28299d7086a3ff761a75bd09405756d3"
          }
        },
        {
          "client_id": "255891483010-8oui1qskemtpm159qk0d2db9teci1vnb.apps.googleusercontent.com",
          "client_type": 3
        }
      ],
      "api_key": [
        {
          "current_key": "AIzaSyDKFlTDLftHzH909xYsLZYQPSyPTZ8lKMk"
        }
      ],
      "services": {
        "appinvite_service": {
          "other_platform_oauth_client": [
            {
              "client_id": "255891483010-8oui1qskemtpm159qk0d2db9teci1vnb.apps.googleusercontent.com",
              "client_type": 3
            }
          ]
        }
      }
    }
  ],
  "configuration_version": "1"
}